Assessment Data Responses • iucnredlist
…
We have designed the package to return two ‘types’ of assessment
response from the API, which we refer to as ‘minimal’ and ‘full’
assessment responses.

Minimal Responses

A ‘minimal’ response returns a tibble() containing just
enough information for the user to gather full assessment data for each
assessment they are interested in. For example, you may be interested in
knowing all assessments which have habitat code 1 coded against
them:

a <- assessments_by_group(api, "habitats", "1")

# A tibble: 114 × 7
   sis_taxon_id assessment_id latest year_published scopes_description_en scopes_code url                                               
          <int>         <int> <lgl>  <chr>          <chr>                 <chr>       <chr>                                             
 1       133958       3881104 TRUE   2008           Global                1           https://www.iucnredlist.org/species/133958/3881104
 2       134059       3887925 TRUE   2008           Global                1           https://www.iucnredlist.org/species/134059/3887925
 3       134019       3893117 TRUE   2008           Global                1           https://www.iucnredlist.org/species/134019/3893117
 4       134151       3910739 TRUE   2008           Global                1           https://www.iucnredlist.org/species/134151/3910739
 5       134199       3918266 TRUE   2008           Global                1           https://www.iucnredlist.org/species/134199/3918266
 6       134378       3947233 TRUE   2008           Global                1           https://www.iucnredlist.org/species/134378/3947233
 7       134409       3952097 TRUE   2008           Global                1           https://www.iucnredlist.org/species/134409/3952097
 8       134409       3952097 TRUE   2008           Eastern Africa        18          https://www.iucnredlist.org/species/134409/3952097
 9       134409       3952097 TRUE   2008           Pan-Africa            10          https://www.iucnredlist.org/species/134409/3952097
10       134438       3956693 TRUE   2008           Global                1           https://www.iucnredlist.org/species/134438/3956693
# ℹ 104 more rows
# ℹ Use `print(n = ...)` to see more rows
…
You could then use this ‘minimal’ dataframe and loop over each
assessment ID to gather ‘full’ assessment data for each assessment:

all_data <- assessment_data_many(api, ea$assessment_id)

If you know a priori which assessments you need, you can
supply the appropriate arguments to assessments_by_group()
directly, and save a filtering task further downstream (it will also
likely save on calls to the API database):

# Get global assessments published in 2008 for habitat code 1
assessments_by_group(api, "habitats", "1", year_published = 2008, scope = 1)

# A tibble: 38 × 7
   sis_taxon_id assessment_id latest year_published scopes_description_en scopes_code url                                               
          <int>         <int> <lgl>  <chr>          <chr>                 <chr>       <chr>                                             
 1       133958       3881104 TRUE   2008           Global                1           https://www.iucnredlist.org/species/133958/3881104
 2       134059       3887925 TRUE   2008           Global                1           https://www.iucnredlist.org/species/134059/3887925
 3       134019       3893117 TRUE   2008           Global                1           https://www.iucnredlist.org/species/134019/3893117
 4       134151       3910739 TRUE   2008           Global                1           https://www.iucnredlist.org/species/134151/3910739
 5       134199       3918266 TRUE   2008           Global                1           https://www.iucnredlist.org/species/134199/3918266
 6       134378       3947233 TRUE   2008           Global                1           https://www.iucnredlist.org/species/134378/3947233
 7       134409       3952097 TRUE   2008           Global                1           https://www.iucnredlist.org/species/134409/3952097
 8       134409       3952097 TRUE   2008           Eastern Africa        18          https://www.iucnredlist.org/species/134409/3952097
 9       134409       3952097 TRUE   2008           Pan-Africa            10          https://www.iucnredlist.org/species/134409/3952097
10       134438       3956693 TRUE   2008           Global                1           https://www.iucnredlist.org/species/134438/3956693
# ℹ 28 more rows
# ℹ Use `print(n = ...)` to see more rows
…
