Gather Common Data • iucnredlist
…
First, you’ll want to load the package into your R session and then
initialise a connection to the Red List API. Initialising a connection
will require you to have a valid API token. If you don’t already have
one, you can sign up for one here.

library(iucnredlist)
api <- init_api("your_api_token")

We now need to gather a list of all (latest) assessments whose
species belong to the family felidae:

felidae <- assessments_by_taxonomy(api, level = "family", name = "felidae", latest = TRUE)

# A tibble: 52 × 7
   sis_taxon_id assessment_id latest year_published scopes_description_en scopes_code url                                              
          <int>         <int> <lgl>  <chr>          <chr>                 <chr>       <chr>                                            
 1        11638       3299247 TRUE   2010           Mediterranean         4           https://www.iucnredlist.org/species/11638/3299247
 2        12519       3350985 TRUE   2010           Mediterranean         4           https://www.iucnredlist.org/species/12519/3350985
 3        15951       5325996 TRUE   2010           Mediterranean         4           https://www.iucnredlist.org/species/15951/5325996
 4        15954       5328595 TRUE   2010           Mediterranean         4           https://www.iucnredlist.org/species/15954/5328595
 5        15955       5330476 TRUE   2010           Mediterranean         4           https://www.iucnredlist.org/species/15955/5330476
 6         3847      10121483 TRUE   2010           Mediterranean         4           https://www.iucnredlist.org/species/3847/10121483
 7         8540      12915840 TRUE   2010           Mediterranean         4           https://www.iucnredlist.org/species/8540/12915840
 8         8540      12916263 TRUE   2007           Europe                2           https://www.iucnredlist.org/species/8540/12916263
 9         8541      12916598 TRUE   2010           Mediterranean         4           https://www.iucnredlist.org/species/8541/12916598
10          219      13034035 TRUE   2010           Mediterranean         4           https://www.iucnredlist.org/species/219/13034035 
# ℹ 42 more rows
# ℹ Use `print(n = ...)` to see more rows
…
After this runs, we will how have full assessment data for all 50
unique assessment IDs (as of time of publication). From here, we can
extract the data we are interested in with:

habitats <- extract_element(felidae_full, "habitats")

The extract_element() function is super helpful. It
returns a tidy dataframe of the element you’re interested; a row for
each unique element and assessment ID for all of the assessments you
gathered full assessment data for:

habitats

# A tibble: 452 × 7
   index    assessment_id majorImportance season suitability description                                                               code 
   <chr>    <chr>         <chr>           <chr>  <chr>       <chr>                                                                     <chr>
 1 habitats 3299247       NA              NA     Suitable    Wetlands (inland) - Shrub Dominated Wetlands                              5_3  
 2 habitats 3299247       NA              NA     Suitable    Grassland - Subtropical/Tropical High Altitude                            4_7  
 3 habitats 3299247       NA              NA     Suitable    Wetlands (inland) - Permanent Rivers/Streams/Creeks (includes waterfalls) 5_1  
 4 habitats 3299247       NA              NA     Suitable    Forest - Subtropical/Tropical Dry                                         1_5  
 5 habitats 3299247       NA              NA     Suitable    Savanna - Dry                                                             2_1  
 6 habitats 3299247       NA              NA     Suitable    Grassland - Subtropical/Tropical Dry                                      4_5  
 7 habitats 3299247       NA              NA     Suitable    Grassland - Subtropical/Tropical Seasonally Wet/Flooded                   4_6  
 8 habitats 3350985       NA              NA     Suitable    Shrubland - Boreal                                                        3_3  
 9 habitats 3350985       NA              NA     Suitable    Shrubland - Subtropical/Tropical Dry                                      3_5  
10 habitats 3350985       NA              NA     Suitable    Shrubland - Temperate                                                     3_4  
# ℹ 442 more rows
# ℹ Use `print(n = ...)` to see more rows

You can now do the same for threats:

threats <- extract_element(felidae_full, "threats")

threats

# A tibble: 653 × 13
   index   assessment_id scope timing                   internationalTrade score         severity ancestry virus ias   text  description                                       code 
   <chr>   <chr>         <chr> <chr>                    <chr>              <chr>         <chr>    <chr>    <chr> <chr> <chr> <chr>                                             <chr>
 1 threats 3299247       NA    Ongoing                  NA                 Low Impact: 3 NA       NA       NA    NA    NA    Agro-industry farming                             2_1_3
 2 threats 3299247       NA    Past, Unlikely to Return NA                 Past Impact   NA       NA       NA    NA    NA    Scale Unknown/Unrecorded                          2_3_4
 3 threats 3299247       NA    Ongoing                  NA                 Low Impact: 3 NA       NA       NA    NA    NA    Nomadic grazing                                   2_3_1
 4 threats 3299247       NA    Ongoing                  NA                 Low Impact: 3 NA       NA       NA    NA    NA    Intentional use (species is the target)           5_1_1
 5 threats 3299247       NA    Ongoing                  NA                 Low Impact: 3 NA       NA       NA    NA    NA    Agro-industry grazing, ranching or farming        2_3_3
 6 threats 3299247       NA    Ongoing                  NA                 Low Impact: 3 NA       NA       NA    NA    NA    Problematic native species/diseases               8_2  
 7 threats 3299247       NA    Ongoing                  NA                 Low Impact: 3 NA       NA       NA    NA    NA    Persecution/control                               5_1_3
 8 threats 3299247       NA    Ongoing                  NA                 Low Impact: 3 NA       NA       NA    NA    NA    Unintentional effects (species is not the target) 5_1_2
 9 threats 3299247       NA    Ongoing                  NA                 Low Impact: 3 NA       NA       NA    NA    NA    Small-holder grazing, ranching or farming         2_3_2
10 threats 3299247       NA    Ongoing                  NA                 Low Impact: 3 NA       NA       NA    NA    NA    Trend Unknown/Unrecorded                          7_1_3
# ℹ 643 more rows
# ℹ Use `print(n = ...)` to see more rows
…
